<?xml version="1.0" encoding="UTF-8"?>
<CustomTab xmlns="http://soap.sforce.com/2006/04/metadata">
    <label>Find Nearby</label>
    <motif>Custom67: Gears</motif>
    <page>FindNearbyVenues</page>
</CustomTab>
