<?xml version="1.0" encoding="UTF-8"?>
<CustomTab xmlns="http://soap.sforce.com/2006/04/metadata">
    <icon>Custom_Actions/sf1TabIcon.png</icon>
    <label>Active Reports</label>
    <mobileReady>true</mobileReady>
    <motif>Custom305: TV Widescreen</motif>
    <page>sf1Tab_ViewTrips</page>
</CustomTab>
